<?xml version="1.0" encoding="UTF-8"?>
<svg width="24px" height="24px" viewBox="0 0 24 24" version="1.1" xmlns="http://www.w3.org/2000/svg" xmlns:xlink="http://www.w3.org/1999/xlink">
    <g id="Page-1" stroke="none" stroke-width="1" fill="none" fill-rule="evenodd">
        <g id="Artboard" transform="translate(-173.000000, -52.000000)" fill="#000" fill-rule="nonzero">
            <g id="apple-fruit" transform="translate(173.000000, 52.000000)">
                <path d="M16.9634286,5.82313043 C21.7548571,5.91808696 24.704,9.67930435 23.4302857,14.8393043 C22.172,19.9387826 18.6091429,23.8309565 14.4337143,23.8544348 C13.3811429,23.8591304 12.5703702,23.9283256 11.9200845,23.4347604 C11.2709416,23.9293691 10.4262857,23.8544348 9.37371429,23.8544348 C5.336,23.8544348 1.44342857,19.7212174 0.377142857,14.8393043 C-0.925714286,8.87269565 2.80685714,5.82313043 6.84457143,5.82313043 C8.37771429,5.82313043 9.81250135,6.59804705 10.9885014,7.59300357 C10.2227871,4.90187313 7.67942857,3.87391304 6.87314286,3.53530435 C6.26342857,3.27965217 5.95485714,2.65565217 6.20971429,2.088 C6.46457143,1.52191304 7.18342857,1.23078261 7.79542857,1.48330435 C8.43828571,1.74886957 9.97657143,2.51008696 11.3394286,3.84052174 C11.4308571,2.25443478 12.2885714,-0.16226087 16.7102857,0.00886956522 C16.7102857,0.00886956522 18.2668571,3.88370164 12,4.65848425 C12,4.65848425 13.0537512,6.04995526 13.2503227,7.28699874 C14.408037,6.33795526 15.4691429,5.7933913 16.9634286,5.82313043 Z M16.3353424,7.01624068 C18.0209587,8.03410283 19.1861799,9.03848528 19.8310061,10.029388 C20.4758322,11.0202908 20.8422215,12.1255888 20.9301738,13.3452822 L20.9301738,15.2527945 C21.3961397,14.5480631 21.7173005,13.9122256 21.8936561,13.3452822 C22.0502525,13.0343737 22.173372,10.8921606 20.6709508,8.98944882 C19.1685296,7.08673708 18.4205375,7.17549511 18.1087307,7.1218225 C17.9008595,7.08604077 17.3097301,7.05084683 16.3353424,7.01624068 Z" id="Combined-Shape"></path>
            </g>
        </g>
    </g>
</svg>
