<?xml version="1.0" encoding="UTF-8"?>
<svg width="24px" height="24px" viewBox="0 0 24 24" version="1.1" xmlns="http://www.w3.org/2000/svg" xmlns:xlink="http://www.w3.org/1999/xlink">
    <g id="Page-1" stroke="none" stroke-width="1" fill="none" fill-rule="evenodd">
        <g id="Artboard" transform="translate(-74.000000, -48.000000)" fill="#000" fill-rule="nonzero">
            <g id="hot_drink" transform="translate(76.000000, 48.000000)">
                <path d="M8.08985507,23.9533981 C8.08985507,23.9533981 18.2347826,23.2048544 13.5855072,14.6097087 C9.85217391,7.70970874 10.7043478,3.66116505 15.4811594,0.00291262136 C15.4811594,0.00291262136 -0.165217391,4.00776699 8.95942029,16.4009709 C12.3072464,21.8009709 8.08985507,23.9533981 8.08985507,23.9533981 Z" id="Path"></path>
                <path d="M1.29010256,19.7475728 C1.29010256,19.7475728 7.87401976,19.26147 4.85670457,13.6797994 C2.43382304,9.19895297 2.98687208,6.56983668 6.08695652,4.19417476 C6.08695652,4.19417476 -4.06732491,6.79491929 1.85443832,14.8430415 C4.027131,18.3497908 1.29010256,19.7475728 1.29010256,19.7475728 Z" id="Path"></path>
                <path d="M14.9275362,23.2660194 C14.9275362,23.2660194 23.0550725,21.5446602 18.6318841,14.976699 C17.026087,12.1281553 19.2405797,11.1116505 19.2405797,11.1116505 C19.2405797,11.1116505 14.0086957,11.2776699 16.2173913,15.7951456 C17.9855072,19.4271845 17.4608696,21.4893204 14.9275362,23.2660194 Z" id="Path"></path>
            </g>
        </g>
    </g>
</svg>
