<?xml version="1.0" encoding="UTF-8"?>
<svg width="24px" height="24px" viewBox="0 0 24 24" version="1.1" xmlns="http://www.w3.org/2000/svg" xmlns:xlink="http://www.w3.org/1999/xlink">
    <g id="Page-1" stroke="none" stroke-width="1" fill="none" fill-rule="evenodd">
        <g id="Artboard" transform="translate(-74.000000, -48.000000)">
            <g id="lemon-slice" transform="translate(74.000000, 48.000000)">
                <path d="M13.1081633,9.46285714 L19.6028571,9.46285714 C19.9653061,9.48734694 20.4844898,9.17387755 20.4208163,8.5322449 C20.1710204,6.70530612 19.4510204,4.97142857 18.3440816,3.52653061 C18.1922449,3.3355102 17.6828571,2.96816327 17.104898,3.4677551 L12.5155102,8.03755102 C11.8738776,8.71346939 12.177551,9.46285714 13.1081633,9.46285714 Z" id="Path" fill="#000" fill-rule="nonzero"></path>
                <path d="M10.4240816,13.0971429 L10.4240816,13.0971429 L10.4240816,19.5918367 C10.4240816,20.0718367 10.8502041,20.4783673 11.3546939,20.4293878 C13.1816327,20.1795918 14.9155102,19.4595918 16.3604082,18.3526531 C16.7767347,18.0293878 16.7522449,17.4563265 16.4191837,17.1134694 L11.8297959,12.5044898 C11.1146939,11.882449 10.4240816,12.3379592 10.4240816,13.0971429 Z" id="Path" fill="#000" fill-rule="nonzero"></path>
                <path d="M18.3636735,16.3738776 C19.4853061,14.9289796 20.1906122,13.195102 20.4404082,11.3681633 C20.4991837,10.6383673 19.8673469,10.437551 19.622449,10.437551 L13.1081633,10.437551 C12.177551,10.437551 11.8689796,11.3387755 12.5155102,11.8481633 L12.5155102,11.8481633 L17.1244898,16.4571429 C17.58,16.8293878 18.1138776,16.7118367 18.3636735,16.3738776 Z" id="Path" fill="#000" fill-rule="nonzero"></path>
                <path d="M3.51306122,18.3379592 C4.95795918,19.4595918 6.69183673,20.164898 8.51877551,20.4146939 C9.03795918,20.4734694 9.42979592,20.1012245 9.44938776,19.5967347 L9.44938776,19.5967347 L9.44938776,13.0971429 C9.45428571,12.1812245 8.66571429,11.995102 8.03877551,12.5044898 L3.44938776,17.1134694 C3.2877551,17.2897959 2.96938776,17.8383673 3.51306122,18.3379592 Z" id="Path" fill="#000" fill-rule="nonzero"></path>
                <path d="M9.94581335,12.2263465 C10.1453821,11.7193671 10.9531797,11.2739085 11.5832823,11.5055676 C11.3407728,10.6644894 11.8637329,10.1618726 12.1730578,9.9770212 C11.5832823,9.7906077 11.2329028,9.23506777 11.5832823,8.32260877 L8.1177063,11.6017456 C9.23746072,11.2599129 9.59109736,11.7193671 9.94581335,12.2263465 Z" id="Path" fill="#000" fill-rule="nonzero"></path>
                <path d="M19.8869388,0 L17.6827146,2.22852565 C18.1529187,2.18444402 18.7604082,2.47836735 19.1032653,2.91428571 C20.3228571,4.49632653 21.1016327,6.39673469 21.3710204,8.38040816 C21.4493878,8.89469388 21.18,9.68326531 20.817551,9.94285714 C21.3122449,10.437551 21.4444898,10.9910204 21.3710204,11.5053061 C21.1065306,13.4840816 20.3228571,15.3893878 19.1032653,16.9714286 C18.7604082,17.4073469 18.2755102,17.6620408 17.6387755,17.6571429 C17.6583673,18.3036735 17.3546939,18.8179592 16.9530612,19.1412245 C15.3710204,20.3608163 13.4706122,21.1395918 11.4869388,21.4089796 C10.7767347,21.4971429 10.2477551,21.1983673 9.9244898,20.8555102 C9.90489796,20.875102 9.38081633,21.5461224 8.38163265,21.4089796 C6.40285714,21.1444898 4.49755102,20.3608163 2.9155102,19.1412245 C2.51387755,18.837551 2.21510204,18.3428571 2.22979592,17.6571429 L0.0012244898,19.8857143 C5.48693878,25.3714286 14.3963265,25.3714286 19.8820408,19.8857143 C25.3677551,14.4 25.3726531,5.48081633 19.8869388,0 Z" id="Path" fill="#000" fill-rule="nonzero"></path>
                <path d="M11.0126017,9.96848019 L21.096545,9.95993917" id="Path-2" stroke="#000" stroke-width="0.1"></path>
                <path d="M11.2889138,8.66280586 L18.1161582,1.86349887" id="Path-3" stroke="#000" stroke-width="0.1"></path>
                <path d="M11.2329028,11.1495004 L18.1161582,18.1338084" id="Path-4" stroke="#000" stroke-width="0.1"></path>
                <path d="M9.94048246,11.7193671 L9.93515157,21.440842" id="Path-5" stroke="#000" stroke-width="0.1"></path>
                <polygon id="Path-6" stroke="#000" stroke-width="0.1" points="2.03103321 17.9311957 8.17115771 11.621778 8.63075587 11.2027245 8.17115771 11.621778"></polygon>
            </g>
        </g>
    </g>
</svg>
