<?xml version="1.0" encoding="UTF-8"?>
<svg width="24px" height="24px" viewBox="0 0 24 24" version="1.1" xmlns="http://www.w3.org/2000/svg" xmlns:xlink="http://www.w3.org/1999/xlink">
    <g id="Page-1" stroke="none" stroke-width="1" fill="none" fill-rule="evenodd">
        <g id="Artboard" transform="translate(-173.000000, -52.000000)" fill="#fff" fill-rule="nonzero">
            <g id="shot" transform="translate(178.000000, 52.000000)">
                <path d="M11.4440374,15 L11.6026126,13.2727273 L3.35500517,13.2727273 C3.41168913,13.8269062 3.4706038,14.4026247 3.53176544,15 L11.4440374,15 Z M11.1435792,18.2727273 L3.86856021,18.2727273 L3.66863421,16.3363443 C3.83325113,17.9430525 4.01261065,19.691667 4.20698358,21.5841415 L10.8395693,21.5841415 L11.1435792,18.2727273 Z M11.9030707,10 L12.0669947,8.21446505 L2.83846202,8.21446505 C2.92596942,9.07292883 3.02329408,10.0268177 3.13059189,11.0772564 L3.0229612,10 L11.9030707,10 Z M12.3674529,4.94173778 L12.6084763,2.31640136 C12.6159149,2.23508241 2.24672538,2.39768578 2.23893707,2.31640136 C2.23599974,2.2857453 2.3231786,3.14915066 2.50534162,4.94173778 L12.3674529,4.94173778 Z M14.9806043,2.12879107 C13.6400528,16.0617366 12.9542744,23.2156004 12.923269,23.5903826 L2.21434121,23.5903826 C2.21434121,23.2930987 1.48267593,16.1392518 0.0193453791,2.12884211 C-0.0326718009,1.58499522 0.14528436,1.04104625 0.507591825,0.636580542 C0.869899289,0.232012759 1.38684834,0 1.92590344,0 L13.0740462,0 C13.6131013,0 14.1300504,0.232012759 14.4923578,0.636529506 C14.8546653,1.04109729 15.0326718,1.58499522 14.9806043,2.12879107 Z" id="Shape"></path>
            </g>
        </g>
    </g>
</svg>
