<?xml version="1.0" encoding="UTF-8"?>
<svg width="96px" height="96px" viewBox="0 0 96 96" version="1.1" xmlns="http://www.w3.org/2000/svg" xmlns:xlink="http://www.w3.org/1999/xlink">
    <defs>
        <circle id="path-1" cx="48" cy="48" r="48"></circle>
    </defs>
    <g id="Page-1" stroke="none" stroke-width="1" fill="none" fill-rule="evenodd">
        <g id="Profile-View" transform="translate(-132.000000, -60.000000)">
            <g id="avatar" transform="translate(132.000000, 60.000000)">
                <g id="Group">
                    <mask id="mask-2" fill="white">
                        <use xlink:href="#path-1"></use>
                    </mask>
                    <use id="background" fill="#0B8FFF" xlink:href="#path-1"></use>
                    <path d="M48,4 C23.712,4 4,23.712 4,48 C4,72.288 23.712,92 48,92 C72.288,92 92,72.288 92,48 C92,23.712 72.288,4 48,4 Z M48,17.2 C55.304,17.2 61.2,23.096 61.2,30.4 C61.2,37.704 55.304,43.6 48,43.6 C40.696,43.6 34.8,37.704 34.8,30.4 C34.8,23.096 40.696,17.2 48,17.2 Z M48,79.68 C37,79.68 27.276,74.048 21.6,65.512 C21.732,56.756 39.2,51.96 48,51.96 C56.756,51.96 74.268,56.756 74.4,65.512 C68.724,74.048 59,79.68 48,79.68 Z" id="Shape" fill="#FFFFFF" fill-rule="nonzero"></path>
                </g>
            </g>
        </g>
    </g>
</svg>
